    1  sudo apt-get install keepassx
    2  sudo apt-get install clion
    3  sudo apt-get install c-lion
    4  sudo apt-get install jetbrains
    5  open firefox
    6  open mozila
    7  open terminal
    8  open amazon
    9  gcc
   10  sudo apt install gcc
   11  gcc
   12  apt install cmake
   13  yes
   14  sudo apt install cmake
   15  g++
   16  sudo apt install g++
   17  git
   18  amazon
   19  sudo apt install git
   20  sudo apt install check
   21  pip
   22  sudo apt install python
   23  sudo apt install check
   24  open clion
   25  open CLion
   26  git clone https://github.com/cubazis/inno_ansic_spring.git
   27  git config --global user.name "Rim Rakhimov"
   28  git config --global user.email rimrakhimov@gmail.com
   29  git status
   30  cd inno_ansic_spring
   31  git status
   32  sudo apt install make
   33  sudo apt install pkg-config
   34  run.processes.with.pty = false
   35  run.processes.with.pty
   36  open run.processes.with.pty
   37  processes
   38  empty
   39  sudo apt install empty
   40  empty
   41  sudo apt install empty
   42  sudo apt install bionic
   43  sudo apt install empty-expect
   44  python setup.py install
   45  python3 setup.py ins
   46  sudo apt install python-distutils
   47  sudo apt install distutils
   48  sudo apt install python-distutils-extra
   49  sudo apt install python3-distutils-extra
   50  sudo apt install python3-setuptools
   51  pip install web3
   52  sudo apt install python-pip
   53  sudo apt install python3-pip
   54  pip install web3[B
   55  sudo pip install web3
   56  sudo -H  pip install web3
   57  sudo -H  pip install pyethereum
   58  sudo -H  pip install ethereum
   59  sudo -H  pip install -U pip setuptools virtualenv
   60  sudo -H  pip install -U wheel
   61  sudo -H  pip install -U pip wheel virtualenv
   62  sudo -H  pip install testresources
   63  sudo -H  pip install -U pip wheel virtualenv
   64  sudo -H  pip install ethereum
   65  sudo apt install openssl
   66  sudo -H  pip install ethereum
   67  sudo -H  pip install scrypt
   68  sudo apt-get install libssl-dev
   69  sudo -H  pip install ethereum
   70  sudo apt-install python 3.6
   71  sudo apt-install python
   72  sudo apt install python 3.6
   73  sudo apt install python
   74  sudo apt uninstall python
   75  sudo apt remove  python
   76  sudo apt install python 3.6
   77  python
   78  sudo apt install python 3
   79  sudo apt install python3
   80  sudo apt purge python
   81  sudo apt install python3
   82  sudo apt autoremove
   83  sudo apt install distutils.core
   84  sudo apt install python3
   85  sudo apt install python-distutils
   86  opkg install python-distutils
   87  sudo -s
   88  git clone https://github.com/dariamikl/hw_inno_c.git
   89  git checkout aliendr-patch-1
   90  cd hw_inno_c
   91  git checkout aliendr-patch-1
   92  git status
   93  git add *
   94  git status
   95  git commit -m "Add task 1.22, 2.4, 3.1, 3.4"
   96  git push
   97  git checkout master
   98  git fetch
   99  git pull
  100  git status
  101  git fetch
  102  git pull
  103  git fetch
  104  git pull
  105  git fetch
  106  git pull
  107  git fetch
  108  git pull
  109  git fetch
  110  git pull
  111  git fetch
  112  git pull
  113  git fetch
  114  git pull
  115  git status
  116  git add *
  117  git commit - "Remove excess bracket"
  118  git push
  119  git status
  120  git commit -m "Remove excess bracket in test_task.c"
  121  git push
  122  git status
  123  git fetch
  124  git pull
  125  git fetch
  126  git pull
  127  git add *
  128  git commit -m "merge everything together"
  129  git push
  130  cd ..
  131  cd home
  132  cd /home
  133  cd ..
  134  cd hw_inno_c
  135  cd /hw_inno_c
  136  cd hw_inno_c
  137  cd  /hw_inno_c
  138  cd hw_inno_c
  139  git clone https://gitlab.com/fintech2018-final-project/solution.git
  140  cd solution
  141  git master
  142  cd .
  143  cd ..
  144  cd /home/romerion/inno_ansic_spring
  145  git fetch
  146  git pull
  147  cd inno_ansic_spring
  148  git fetch
  149  git status
  150  git pull
  151  git fetch
  152  git pull
  153  cd ..
  154  cd hw_inno_c
  155  git fetch
  156  git pull
  157  git status
  158  git add *
  159  git commit -m "Add hw_2 stack implementation"
  160  git push
  161  git fetch
  162  св юю
  163  cd ..
  164  pip install websocket
  165  sudo pip install websockets
  166  sudo -H pip install websockets
  167  sudo -H pip install numpy
  168  sudo -H pip uninstall numpy
  169  sudo -H pip uninstall websockets
  170  sudo -H pip install websockets
  171  sudo apt uninstall cmake
  172  sudo apt install  cmake
  173  sudo apt install check
  174  sudo apt install check 0.12.0
  175  sudo apt-get install check
  176  sudo apt-get remove check
  177  sudo apt-get install check0.12.0
  178  sudo apt-get install check 0.12.0
  179  sudo apt-get install check
  180  sudo apt-get install check 12
  181  sudo apt-get install check 0.12.0
  182  sudo apt-get install check 0.12
  183  sudo apt-get remove check
  184  git clone https://github.com/libcheck/check.git && cd check && git checkout 0.12.0
  185  autoreconf --install
  186  ./configure
  187  cd..
  188  cd ..
  189  cd check-0.12.0
  190  ./configure
  191  make
  192  make check
  193  sudo make install
  194  cd ..
  195  git clone https://github.com/TovarichMFS/EEA_Charging_Station.git
  196  cd EEA_Charging_Station
  197  git fetch
  198  git pull
  199  sudo apt-get remove check
  200  sudo apt autoremove
  201  sudo apt-get remove check 0.12.0
  202  sudo apt-get install check 0.12.0
  203  cd check-0.12.0
  204  ./configure
  205  make
  206  make check
  207  sudo make install
  208  sudo apt install automake
  209  sudo apt install autoconf
  210  cd ..
  211  sudo apt install automake
  212  sudo apt install autoconf
  213  sudo apt install libtool
  214  sudo apt install pkg-config
  215  sudo apt install texinfo
  216  sudo apt install tetex-bin
  217  sudo apt install Tetex-bin
  218  sudo apt install posix sed
  219  --prefix=/usr
  220  sudo apt install posix
  221  sudo apt install sed
  222  prefix=/usr
  223  git clone https://github.com/libcheck/check.git && cd check && git checkout 0.12.0
  224  cd check
  225  autoreconf —install
  226  ./configure --prefix=/usr
  227  sudo apt install configure.ac
  228  sudo apt install configure
  229  cd ..
  230  git clone https://github.com/libcheck/check.git && cd check && git checkout 0.12.0
  231  autoreconf —install
  232  ./configure --prefix=/usr
  233  cd ..
  234  sudo apt-get install autoake
  235  sudo apt-get install automake
  236  sudo apt-get remove  automake
  237  sudo apt-get install automake
  238  sudo apt-get remove  automake
  239  sudo apt-get install automake 1.9.6
  240  sudo apt-get install automake1.9.6
  241  sudo apt-get install automake v1.9.6
  242  sudo apt-get install automake
  243  sudo apt-get remove  autoconf
  244  sudo apt-get install autoconf
  245  sudo apt-get remove libtool
  246  sudo apt-get install libtool
  247  git clone https://github.com/libcheck/check.git && cd check && git checkout 0.12.0
  248  autoreconf --install
  249  ./configure --prefix=/usr
  250  make check
  251  make && sudo make install
  252  cd ..
  253  sudo make uninstall
  254  make -n install
  255  cd check-0.12.0
  256  sudo make uninstall
  257  sudo make remove
  258  sudo make uninstall
  259  cd ..
  260  pkg-config --list-all
  261  sudo apt-get update && sudo apt-get install checkinstall
  262  cd EEA_Charging_Station
  263  python car.py --plug
  264  cd inno_ansic_spring
  265  git fetch
  266  git pull
  267  cd ..
  268  cd hw_inno_c
  269  git fetch
  270  git pull
  271  cd ..
  272  cd home
  273  cd ..
  274  cd romerion
  275  git clone https://github.com/dariamikl/hw_inno_c.git
  276  cd inno_hw_c
  277  cd hw_inno_c
  278  cd ..
  279  cd .. ..
  280  git clone https://github.com/dariamikl/hw_inno_c.git
  281  cd hw_inno_c
  282  cd ..
  283  cd inno_ansic_spring
  284  git fetch
  285  git pull
  286  git fetch
  287  git pull
  288  cd ..
  289  cd hw_inno_c
  290  git fetch
  291  git pull
  292  git status
  293  git add ha-4
  294  git stauts
  295  git status
  296  git commit -m "ha_4"
  297  git push
  298  git status
  299  git add *
  300  git commit -m "Fix test"
  301  git push
  302  git status
  303  git fetch
  304  cd ..
  305  sudo app-get remove keypass
  306  sudo apt-get remove keypass
  307  xcd hw_inno_c
  308  cd hw_inno_c
  309  git fetch
  310  git status
  311  cd ..
  312  cd inno_ansic_spring
  313  git fetch
  314  git pull
  315  git fetch
  316  cd ..
  317  cd solution
  318  git fetch
  319  git status
  320  cd ..
  321  cd hw_inno_c
  322  git fetch
  323  git status
  324  cd ..
  325  cd EEA_Charging_Station
  326  git status
  327  cd ..
  328  cd .. ..
  329  cd ..
  330  git clone https://github.com/TovarichMFS/EEA_Charging_Station.git
  331  python version
  332  python --version
  333  sudo apt-get protobuf
  334  sudo apt-get install protobuf
  335  sudo apt-get install protoc
  336  protoc -version
  337  sudo snap install protobuf
  338  sudo apt install protobuf-compiler
  339  protoc --version
  340  sudo apt-get install autoconf automake libtool curl make g++ unzip
  341  ./configure --prefix=/usr
  342  cd protobuf-3.5.1
  343  ./configure --prefix=/usr
  344  make
  345  make check
  346  sudo make install
  347  sudo ldconfig
  348  cd EEA_Charging_Station
  349  python3 car.py
  350  cd _EEA_Charging_Station
  351  cd EEA_Charging_Station
  352  python3 csms.py
  353  cd EEA_Charging_Station
  354  python cs.py
  355  python csms.py
  356  csms.py
  357  python csms.py
  358  python cs.py
  359  python3 cs.py
  360  cd EEA_Charging_Station
  361  python3 car.py
  362  cd EEA_Charging_Station
  363  python3 csms.py
  364  EEA_Charging_Station
  365  cd EEA_Charging_Station
  366  python cs.py
  367  python3 cs.py
  368  cd EEA_Charging_Station
  369  protoc --python_out addressbook.proto
  370  protoc --python_out /addressbook.proto
  371  protoc -I --python_out /addressbook.proto
  372  protoc -I=$SRC_DIR --python_out /addressbook.proto
  373  protoc -I=. --python_out=. /addressbook.proto
  374  protoc -I=. --python_out=. addressbook.proto
  375  protoc --version
  376  protoc -I=. --python_out=. addressbook.proto
  377  protoc -I=. --python_out=. status_notification.proto
  378  protoc -I=. --python_out=. addressbook.proto
  379  protoc -I=. --python_out=. transaction_event.proto
  380  protoc -I=. --python_out=. authorize.proto
  381  git status
  382  git add *
  383  git status
  384  git commit -m "Pattern for communication between CS and CSMS"
  385  git push
  386  protoc -I=. --python_out=. transaction_event.proto
  387  git status
  388  git add *
  389  git status
  390  git commit -m "Implement 3 required types of messages"
  391  git push
  392  protoc -I=. --python_out=. authorize.proto
  393  git add *
  394  git commit -m "Implement communiication between CS and CSMS"
  395  git push
  396  cd solution
  397  git status
  398  git fetch
  399  git pull
  400  git branch
  401  git *
  402  git --help
  403  git branch list
  404  pip3 install solc
  405  pip install solc
  406  cd usr
  407  cd .
  408  cd ..
  409  cd usr/bin
  410  cd python3.6
  411  cd ..
  412  cd usr/bin
  413  pip update simplejson
  414  pip install simplejson
  415  pip -h
  416  pip install simplejson upgrade
  417  pip install simplejson --upgrade
  418  cd solution
  419  python3 setup --new hackathon180317
  420  python3 setup.py --new hackathon180317
  421  sudo ls
  422  ls
  423  mkdir geth
  424  sudo mkdir geth
  425  cp /home/downloads/geth-linux-amd64-1.8.12-37685930/* ./geth
  426  cp /home/downloads/geth-linux-amd64-1.8.12-37685930/* ./geth
  427  cp /home/Downloads/geth-linux-amd64-1.8.12-37685930/* ./geth
  428  cp /Home/Downloads/geth-linux-amd64-1.8.12-37685930/* ./geth
  429  cd home
  430  cd ..
  431  cp /home/downloads/geth-linux-amd64-1.8.12-37685930/* /opt/geth
  432  cp /home/downloads/geth-linux-amd64-1.8.12-37685930/geth /opt/geth
  433  cd home
  434  cd ..
  435  cd home/downloads
  436  cd home/Downloads
  437  cd home/download
  438  cd home/
  439  ls
  440  cp /home/romerion/downloads/geth-linux-amd64-1.8.12-37685930/* /opt/geth
  441  cd ..
  442  cp /home/romerion/downloads/geth-linux-amd64-1.8.12-37685930/* /opt/geth
  443  cp /home/romerion/downloads/geth-linux-amd64-1.8.12-37685930/geth /opt/geth
  444  cd home/romerion/downloads
  445  cd home/romerion/download
  446  cd home/romerion/
  447  cd ..
  448  cd..
  449  cd ..
  450  cd home/romerion/Downloads
  451  cd ..
  452  cp /home/romerion/Downloads/geth-linux-amd64-1.8.12-37685930/* /opt/geth
  453  sudo cp /home/romerion/Downloads/geth-linux-amd64-1.8.12-37685930/* /opt/geth
  454  geth --dev console
  455  cd opt
  456  cd /opt
  457  cd opt/geth/
  458  cd geth
  459  cd ..
  460  cd opt
  461  cd all
  462  all
  463  cd ..
  464  cd solution
  465  cd usr
  466  cd romerion
  467  cd ..
  468  cd home
  469  cd romerion
  470  cd solution
  471  cd testnet/start.sh
  472  cd testnet
  473  start.sh
  474  open start.sh
  475  ./start.sh
  476  sudo apt get install solidoty
  477  sudo apt install solidity
  478  sudo apt-get install solidity
  479  sudo apt-get install software-properties-common
  480  sudo add-apt-repository -y ppa:ethereum/ethereum
  481  sudo apt-get update
  482  sudo apt-get install ethereum
  483  dpkg --listfiles geth
  484  sudo add-apt-repository ppa:ethereum/ethereum
  485  sudo apt-get update
  486  sudo apt-get install solc
  487  git clone https://github.com/OpenZeppelin/openzeppelin-solidityDDDD
  488  git clone https://github.com/poanetwork/poa-bridge-contracts.git
  489  cd ..
  490  /opt/geth/geth --dev console
  491  cd opt/geth/
  492  geth account
  493  geth --config value
  494  ls
  495  --config value
  496  ./geth --config value
  497  cd ..
  498  opt/geth/geth --config value
  499  opt/geth/geth --config
  500  opt/geth/geth --dev console
  501  opt/geth/geth --dev
  502  cd ..
  503  opt/geth/geth --div
  504  opt/geth/geth --dev
  505  cd ..
  506  opt/geth/geth --dev
  507  opt/geth/geth attach ipc:/tmp/geth.ipc
  508  cd ..
  509  opt/geth/geth attach ipc:/tmp/geth.ipc
  510  cd ..
  511  opt/geth/geth attach ipc:/tmp/geth.ipc
  512  cd 
  513  cd ..
  514  cd .
  515  cd ..
  516  opt/geth/geth attach ipc:/tmp/geth.ipc
  517  cd ..
  518  opt/geth/geth attach ipc:/home/romerion/.ethereum/opt
  519  cd ..
  520  opt/geth/geth attach ipc:/tmp/geth.ipc
  521  opt/geth/geth attach ipc:/home/romerion/.ethereum/opt
  522  opt/geth/geth attach ipc:/tmp/geth.ipc
  523  opt/geth/geth attach ipc:/home/romerion/.ethereum/opt
  524  opt/geth/geth attach ipc:/tmp/opt
  525  opt/geth/geth attach http://localhost:8545
  526  cd..
  527  cd ..
  528  /opt/geth/geth --ipcpath 
  529  /opt/geth/geth --ipcpath opt/
  530  /opt/geth/geth --dev
  531  /opt/geth/geth --ipcpath opt/geth
  532  /opt/geth/geth --ipcpath opt/
  533  /opt/geth/geth --ipcpath opt/ removedb
  534  /opt/geth/geth --ipcpath opt/ 
  535  /opt/geth/geth --ipcpath opt/ removedb
  536  /opt/geth/geth --ipcpath opt/
  537  /opt/geth/geth --ipcpath opt/ removedb
  538  /opt/geth/geth --ipcpath opt/
  539  /opt/geth/geth --ipcpath opt/ removedb
  540  /opt/geth/geth --dev
  541  /opt/geth/geth --ipcpath opt/
  542  /opt/geth/geth --ipcpath opt/ removedb
  543  /opt/geth/geth --dev --ipcpath opt/
  544  geth --dev --rpc --rpcaddr "127.0.0.1" --rpcapi "shh, rpc, personal, eth, net, web3" --preload 'home/romerion/.ethereum/mine_on_demand.js'
  545  parity --chain=kovan
  546  parity db kill
  547  ls
  548  parity db kill
  549  parity --chain=kovan
  550  parity
  551  parity --help
  552  parity --chain=kovan
  553  parity --chain=kovan console
  554  parity --help
  555  parity account list
  556  parity account new
  557  parity account list
  558  cd .ethereum
  559  .ls
  560  ls
  561  cd keystore
  562  ls
  563  cleanup
  564  rm -rf ./
  565  cd ..
  566  rm -rf ./keystore
  567  ls
  568  cd ..
  569  mv home/romerion/desktop/mine_one_block.js home/romerion/.ethereum
  570  cd home/romerion/desktop
  571  cd home/romerion/
  572  cd Desktop
  573  cd ..
  574  mv home/romerion/Desktop/mine_one_block.js home/romerion/.ethereum
  575  mv home/romerion/Desktop/mine_on_demand.js home/romerion/.ethereum
  576  cd home/romerion/.local
  577  ls
  578  cd share/io.parity.ethereum
  579  cd chains
  580  ls
  581  cd kovan
  582  ls
  583  cd db
  584  ls
  585  cd 9bf388941c25ea98 
  586  ls
  587  cd ..
  588  ls
  589  cd ..
  590  rm -rf chains
  591  ls
  592  rm -rf chains
  593  ls
  594  cd chains
  595  ls
  596  cd kovan
  597  ls
  598  cd db
  599  ls
  600  cd ..
  601  cd network
  602  ls
  603  rm -rf ./nodes.json
  604  ls
  605  rm -rf ./nodes.json
  606  ls
  607  cd..
  608  cd
  609  cd ..
  610  curl https://sh.rustup.rs -sSf | sh
  611  parity account list
  612  parity chain=kovan
  613  parity --chain=kovan
  614  cd ..
  615  cd opt/geth/
  616  geth --dev console
  617  cd ..
  618  cd opt/geth
  619  geth --dev console
  620  cd ..
  621  cd opt/geth
  622  geth --dev console
  623  pip install json-rpc
  624  cd ..
  625  cd \\Island
  626  parity chain=kovan
  627  parity-- chain=kovan
  628  parity --chain=kovan
  629  cd Downloads
  630  Anaconda3-5.2.0-Linux-x86_64.sh
  631  open Anaconda3-5.2.0-Linux-x86_64.sh
  632  "./Anaconda3-5.2.0-Linux-x86_64.sh"
  633  sudo "./Anaconda3-5.2.0-Linux-x86_64.sh"
  634  md5sum ./Anaconda3-5.2.0-Linux-x86_64.sh
  635  cd ..
  636  bash ~/Downloads/Anaconda3-5.2.0-Linux-x86_64.sh
  637  anaconda-navigator
  638  exit
  639  git clone https://github.com/rimrakhimov/erc721-bridge.git
  640  cd erc721-bridge
  641  git status
  642  git add *
  643  git status
  644  git commit -m "Contracts and scripts actual for second day of module 3"
  645  git push
  646  anaconda-navigator
  647  cd erc721-bridge
  648  git status
  649  git add *
  650  git commit -m "Add custom choice of home and foreign networks"
  651  git push
  652  git status
  653  exit
  654  cd erc721-bridge
  655  python3 bridge.py
  656  python3 Bridge.py
  657  exit
  658  cd erc721-bridge
  659  git status
  660  git add *
  661  git commit -m "Add comments in ERC721 contract"
  662  cd push
  663  git push
  664  git status
  665  cd erc721-bridge
  666  git status
  667  git add *
  668  git status
  669  git add .gitignore
  670  git status
  671  git commit -m "Add comments for bridge contracts"
  672  git push
  673  git status
  674  git add *
  675  git status
  676  git commit -m "Added comments for bridge script"
  677  git push
  678  git status
  679  git add *
  680  git commit -m "Added deployment instruction in readme"
  681  git push
  682  git add *
  683  git commit -m "Fix readme"
  684  git push
  685  git status
  686  git commit -m "Fix README"
  687  git push
  688  afmafraf
  689  date
  690  cal
  691  df
  692  free
  693  exit
  694  sudo apt-get install solc
  695  cd PycharmProjects/ONTI_Final
  696  cd testnet
  697  start.sh
  698  ./start.sh
  699  cd ./start.sh
  700  exec start.sh
  701  ./start.sh
  702  opt/geth/geth attach /home/romerion/PycharmProjects/ONTI_Final/testnet/data/geth.ipc
  703  /opt/geth/geth attach /home/romerion/PycharmProjects/ONTI_Final/testnet/data/geth.ipc
  704  mkdir dapps
  705  cd dapps
  706  npm -v
  707  sudo apt-get install npm
  708  npm -v
  709  npm -h
  710  npm update
  711  npm -v
  712  node -v
  713  sudo apt-get install build-essential python
  714  sudo apt autoremove
  715  mkdir hello_world_voting
  716  cd hello_world_voting
  717  npm install ganache-cli web300.20.0
  718  npm install ganache-cli web300.20.2
  719  cd ..
  720  cd opy
  721  cd opt
  722  cd geth
  723  geth --dev console
  724  cd ..
  725  cd opt
  726  cd lf
  727  cd ls
  728  cd ld
  729  cd l
  730  cd ls
  731  ls
  732  cd ..
  733  sudo apt-get update
  734  sudo apt-get install npm
  735  apt-cache policy npm
  736  sudo apt-get install npm=4.0.5
  737  cd onti-final-solution
  738  python3 setup.py --h
  739  python3 setup.py --s
  740  python setup.py --s
  741  python setup.py
  742  python3 setup.py --s
  743  python3 setup.py
  744  python3 setup.py -g
  745  python3 setup.py -new
  746  python3 setup.py --new
  747  python3 setup.py --new 2
  748  python3 setup.py --new "Ssdgds"
  749  python3 setup.py --new 2
  750  python3 setup.py --new "d"
  751  python3 setup.py --new 2
  752  python3 setup.py --new "3"
  753  python3 setup.py --new "3dasf"
  754  python3 setup.py --new dafdf
  755  python3 setup.py --new onti17-18
  756  python3 setup.py --new onti
  757  python3 setup.py --new onti-final
  758  python3 setup.py --new 'onti-final'
  759  python3 setup.py --new onti-final
  760  python3 setup.py --setup 0.04
  761  cd /opt/geth
  762  geth attach /home/romerion/onti-final-solution/testnet/data/geth.ipc
  763  cd onti-final-solution
  764  python3 setup.py --setup 5
  765  pip freeze
  766  pip install solc
  767  pip install pysolc
  768  pip install py-solc
  769  pip install --upgrade pip
  770  python3 setup.py --setup 5
  771  python3 ./testnet/faucet.py 0xEe2c8749daF784306c7702558DF45DC87E432e1c
  772  python3 setup.py --setup 5
  773  python3 setup.py --setup 2
  774  python3 setup.py --setup 0.2
  775  python3 setup.py --setup 2
  776  python3 setup.py --setup "3"
  777  cd onti-final-solution/testnet
  778  start.sh
  779  ./start.sh
  780  cd onti-final-solution
  781  git status
  782  git add *
  783  git status
  784  git commit -m "initial commit"
  785  git push
  786  cd ..
  787  cd opt/opt
  788  cd opt/ getr
  789  cd opt/ geth
  790  cd opt/geth
  791  geth --dev console
  792  geth --dev --rpc console
  793  geth --dev --rpc
  794  ls
  795  cd ls
  796  cd -l
  797  cd l
  798  cd ld
  799  cd lf
  800  cd --help
  801  cd --h
  802  cd help
  803  ls
  804  cd WebstormProjects
  805  ls
  806  cd Project_School_Tokenomics
  807  ls
  808  php -S 0.0.0.0:8008
  809  sudo apt install php7.2-cli
  810  sudo apt --fix-broken install
  811  sudo dpkg -P nginx-com
  812  sudo apt-get install -f
  813  sudo dpkg -P swarm-common
  814  sudo /usr/bin/dpkg -P swarm-common
  815  sudo apt-get purge -s nginx*
  816  sudo apt-get purge nginx*
  817  apt --fix-broken install
  818  sudo apt --fix-broken install
  819  sudo apt-get purge -s swarm*
  820  sudo apt-get purge swarm*
  821  sudo apt --fix-broken install
  822  sudo apt-get purge swarm*
  823  sudo dpkg -P swarm
  824  sudo apt-get install -f
  825  sudo apt --fix-broken install
  826  php -S 0.0.0.0:8008
  827  sudo apt install php7.2-cli
  828  sudo apt install hhvm
  829  php -S 0.0.0.0:8008
  830  cd openzeppelin-solidity
  831  git status
  832  git pull
  833  whoami
  834  hostname
  835  tail
  836  sudo apt-get remove docker docker-engine docker.io
  837  sudo apt-get update
  838  sudo apt-get install apt-transport-https ca-certificates curl software-properties-common
  839  curl -fsSL https://download.docker.com/linux/ubuntu/gpg | sudo apt-key add -
  840  sudo apt-key fingerprint 0EBFCD88
  841  udo add-apt-repository    "deb [arch=amd64] https://download.docker.com/linux/ubuntu \
  842     $(lsb_release -cs) \
  843     stable"
  844  udo add-apt-repository    "deb [arch=amd64] https://download.docker.com/linux/ubuntu \
  845     $(lsb_release -cs) \
  846     stable"
  847  sudo add-apt-repository    "deb [arch=amd64] https://download.docker.com/linux/ubuntu \
  848     $(lsb_release -cs) \
  849     stable"
  850  sudo apt-get update
  851  sudo apt-get install docker-ce
  852  sudo docker run hello-world
  853  man whoami
  854  man man
  855  whoami
  856  man whoami
  857  less
  858  man man
  859  man -h
  860  man man | head
  861  pwd
  862  ls ~
  863  cd protobuf-3.5.2
  864  cd protobuf-3.5.1
  865  ls
  866  ls ~
  867  ls .
  868  ls ..
  869  cd ..
  870  mkdir os_shell_lab1
  871  cd os_shell_lab1
  872  ls
  873  touch Hello
  874  ls
  875  cat > Hello
  876  cat > Hello.txt
  877  ls
  878  echo > Hello
  879  gedit Hello
  880  mv Hello HelloWorld
  881  ls
  882  gedit &
  883  bg
  884  fg
  885  bg
  886  jobs
  887  rm Hello
  888  rm HelloWorld
  889  ls
  890  rm Hello.txt
  891  cd ~
  892  rm -r os_shell_lab1
  893  mkdir ~/week1
  894  cd ~/week1
  895  ls /usr/bin
  896* ls /usr/bin 
  897  ls /usr/bin/*gcc*
  898  ls /usr/bin/*gcc* | sort -r
  899  ls /usr/bin/*gcc* | sort -r > ~/week1/ex1.txt
  900  ls
  901  history
  902  history > ~/week1/ex2.txt
